====================================================================================================================

                    欢迎使用 lb-api - Powered By https://www.lbjt.com

====================================================================================================================
